<?xml version="1.0" encoding="UTF-8" standalone="no"?>
<!-- Created with Inkscape (http://www.inkscape.org/) -->

<svg
   xmlns:dc="http://purl.org/dc/elements/1.1/"
   xmlns:cc="http://creativecommons.org/ns#"
   xmlns:rdf="http://www.w3.org/1999/02/22-rdf-syntax-ns#"
   xmlns:svg="http://www.w3.org/2000/svg"
   xmlns="http://www.w3.org/2000/svg"
   xmlns:sodipodi="http://sodipodi.sourceforge.net/DTD/sodipodi-0.dtd"
   xmlns:inkscape="http://www.inkscape.org/namespaces/inkscape"
   width="640"
   height="640"
   viewBox="0 0 639.99999 639.99999"
   id="svg4142"
   version="1.1"
   inkscape:version="0.91 r13725"
   sodipodi:docname="telegram_logo.svg"
   inkscape:export-filename="/home/german/g342.png"
   inkscape:export-xdpi="90"
   inkscape:export-ydpi="90">
  <defs
     id="defs4144" />
  <sodipodi:namedview
     id="base"
     pagecolor="#ffffff"
     bordercolor="#666666"
     borderopacity="1.0"
     inkscape:pageopacity="0.0"
     inkscape:pageshadow="2"
     inkscape:zoom="0.49497475"
     inkscape:cx="485.15902"
     inkscape:cy="410.86469"
     inkscape:document-units="px"
     inkscape:current-layer="layer1"
     showgrid="true"
     units="px"
     width="640mm"
     fit-margin-top="0"
     fit-margin-left="0"
     fit-margin-right="0"
     fit-margin-bottom="0"
     inkscape:window-width="1366"
     inkscape:window-height="705"
     inkscape:window-x="0"
     inkscape:window-y="30"
     inkscape:window-maximized="1">
    <inkscape:grid
       type="xygrid"
       id="grid4761"
       empcolor="#ffffff"
       empopacity="0.25098039"
       color="#ffffff"
       opacity="0.1254902" />
  </sodipodi:namedview>
  <metadata
     id="metadata4147">
    <rdf:RDF>
      <cc:Work
         rdf:about="">
        <dc:format>image/svg+xml</dc:format>
        <dc:type
           rdf:resource="http://purl.org/dc/dcmitype/StillImage" />
        <dc:title></dc:title>
      </cc:Work>
    </rdf:RDF>
  </metadata>
  <g
     inkscape:label="Layer 1"
     inkscape:groupmode="layer"
     id="layer1"
     transform="translate(0,-412.36217)">
    <rect
       style="fill:#000000;fill-opacity:1;stroke:#ffffff;stroke-width:2.64660549;stroke-linecap:butt;stroke-linejoin:bevel;stroke-miterlimit:4;stroke-dasharray:none;stroke-opacity:1"
       id="rect4690"
       width="637.35339"
       height="637.35339"
       x="1.9001807"
       y="414.4357" />
    <g
       id="g342"
       transform="matrix(8.64,0,0,-8.64,-1156.4698,1365.4023)">
      <text
         transform="scale(1,-1)"
         style="font-style:normal;font-variant:normal;font-weight:500;font-stretch:normal;font-size:19.0135994px;font-family:Ubuntu;-inkscape-font-specification:'Ubuntu Medium';writing-mode:lr-tb;fill:#ffffff;fill-opacity:1;fill-rule:nonzero;stroke:none"
         id="text344"
         x="164.58241"
         y="-67.028786">
        <tspan
           sodipodi:role="line"
           id="tspan346"
           x="164.58241"
           y="-67.028786"
           style="font-weight:bold;font-size:25px">tyr</tspan>
      </text>
      <text
         transform="scale(1,-1)"
         style="font-variant:normal;font-weight:normal;font-size:3px;font-family:Montserrat;-inkscape-font-specification:Montserrat-Regular;writing-mode:lr-tb;fill:#ffffff;fill-opacity:1;fill-rule:nonzero;stroke:none"
         id="text348"
         x="155.83002"
         y="-57.674484">
        <tspan
           sodipodi:role="line"
           id="tspan350"
           style="font-style:normal;font-variant:normal;font-weight:normal;font-stretch:normal;font-size:3px;font-family:Ubuntu;-inkscape-font-specification:Ubuntu"
           x="155.83002"
           y="-57.674484">TECNOLOGIA Y RESULTADOS</tspan>
      </text>
    </g>
    <path
       d="m 136.60989,786.11994 41.6275,-73.63872 -34.48222,-57.74119 -74.269442,131.37991 67.124162,0"
       style="fill:#c41329;fill-opacity:1;fill-rule:nonzero;stroke:none"
       id="path588"
       inkscape:connector-curvature="0" />
    <path
       d="m 140.91261,659.96723 35.35488,-62.7264 106.7731,188.87911 -67.8499,0.22464 -74.27808,-126.37735"
       style="fill:#ed1834;fill-opacity:1;fill-rule:nonzero;stroke:none"
       id="path590"
       inkscape:connector-curvature="0" />
  </g>
</svg>
